{
  "$schema": "http://json-schema.org/draft-04/schema#",
  "definitions": {},
  "properties": {
    "clusters": {
      "default": 10,
      "description": "An explanation about the purpose of this instance.",
      "examples": [
        "10"
      ],
      "title": "The clusters schema.",
      "type": "integer"
    }
  },
  "required": [
    "clusters"
  ],
  "type": "object"
}