{
  "$schema": "http://json-schema.org/draft-04/schema#",
  "definitions": {},
  "id": "http://example.com/example.json",
  "properties": {
    "configuration": {
      "id": "/properties/configuration",
      "properties": {
        "expected_responses": {
          "id": "/properties/configuration/properties/expected_responses",
          "items": {
            "description": "This accepts anything, as long as it's valid JSON.",
            "title": "Empty Object"
          },
          "type": "array"
        },
        "input": {
          "id": "/properties/configuration/properties/input",
          "properties": {
            "description": "This accepts anything, as long as it's valid JSON.",
            "title": "Empty Object"
          },
          "type": "object"
        },
        "model": {
          "default": "cluster",
          "description": "An explanation about the purpose of this instance.",
          "examples": [
            "cluster"
          ],
          "id": "/properties/configuration/properties/model",
          "title": "The model schema.",
          "type": "string"
        }
      },
      "required": [
        "input",
        "model",
        "expected_responses"
      ],
      "type": "object"
    },
    "data": {
      "id": "/properties/data",
      "items": {
        "description": "This accepts anything, as long as it's valid JSON.",
        "title": "Empty Object"
      },
      "type": "array"
    }
  },
  "required": [
    "configuration",
    "data"
  ],
  "type": "object"
}